<svg id="surface1" xmlns="http://www.w3.org/2000/svg" width="40.479" height="44.495" viewBox="0 0 40.479 44.495">
  <path id="Path_714" data-name="Path 714" d="M30.325,19.261v-8.42a.975.975,0,0,0-.269-.64L20.615.288A.941.941,0,0,0,19.938,0H4.97A4.987,4.987,0,0,0,0,5.017v28.3A4.955,4.955,0,0,0,4.97,38.3H16.785A12.753,12.753,0,1,0,30.325,19.261ZM20.866,3.255,27.2,9.923H23.091a2.24,2.24,0,0,1-2.226-2.235ZM4.97,36.445A3.107,3.107,0,0,1,1.855,33.32V5.017A3.132,3.132,0,0,1,4.97,1.855h14.04V7.688a4.088,4.088,0,0,0,4.08,4.09H28.47V19.02c-.278-.009-.5-.037-.742-.037a12.94,12.94,0,0,0-8.457,3.19H7.493a.927.927,0,1,0,0,1.855H17.546A14.755,14.755,0,0,0,15.914,26.9H7.493a.927.927,0,0,0,0,1.855h7.818a12.727,12.727,0,0,0,.556,7.7H4.97Zm22.748,6.2a10.9,10.9,0,1,1,10.9-10.9A10.908,10.908,0,0,1,27.719,42.649Zm0,0" fill="#fff"/>
  <path id="Path_715" data-name="Path 715" d="M76.478,203.538h9.394a.927.927,0,0,0,0-1.855H76.478a.927.927,0,0,0,0,1.855Zm0,0" transform="translate(-68.985 -184.157)" fill="#fff"/>
  <path id="Path_716" data-name="Path 716" d="M7.037.3A.921.921,0,0,0,5.683.3L.249,6.13A.924.924,0,0,0,.3,7.437a.947.947,0,0,0,1.326-.046L5.461,3.283V13.41a.927.927,0,0,0,1.855,0V3.283l3.811,4.108A.925.925,0,0,0,12.481,6.13Zm0,0" transform="translate(34.07 38.949) rotate(180)" fill="#fff"/>
</svg>
